<?xml version="1.0" encoding="utf-8"?>
<!-- Generator: Adobe Illustrator 16.0.0, SVG Export Plug-In . SVG Version: 6.00 Build 0)  -->
<!DOCTYPE svg PUBLIC "-//W3C//DTD SVG 1.1//EN" "http://www.w3.org/Graphics/SVG/1.1/DTD/svg11.dtd">
<svg version="1.1" id="Layer_1" xmlns="http://www.w3.org/2000/svg" xmlns:xlink="http://www.w3.org/1999/xlink" x="0px" y="0px"
	 width="64.007px" height="64.006px" viewBox="0 0 64.007 64.006" enable-background="new 0 0 64.007 64.006" xml:space="preserve">
<path fill="#BE1E2D" d="M32.003,2.537L2.716,22.035v12.763l6.326-0.025v20.767h5.466c0.645,3.354,3.579,5.895,7.097,5.895
	c3.516,0,6.449-2.541,7.095-5.895h6.579c0.646,3.354,3.58,5.895,7.096,5.895c3.517,0,6.452-2.541,7.097-5.895h5.622V34.772
	l6.326,0.025v-12.41L32.003,2.537z M21.604,58.66c-2.471,0-4.479-2.021-4.479-4.508s2.008-4.508,4.479-4.508
	c2.469,0,4.476,2.021,4.476,4.508S24.073,58.66,21.604,58.66z M42.374,58.66c-2.469,0-4.479-2.021-4.479-4.508
	s2.01-4.508,4.479-4.508c2.47,0,4.479,2.021,4.479,4.508S44.844,58.66,42.374,58.66z M58.665,32.018l-6.326-0.024v20.772h-2.868
	c-0.645-3.353-3.58-5.895-7.097-5.895c-3.516,0-6.45,2.542-7.096,5.895h-6.579c-0.646-3.353-3.579-5.895-7.095-5.895
	c-3.518,0-6.452,2.542-7.097,5.895h-2.712V31.993L5.47,32.018v-7.98L31.992,5.461l26.673,18.915V32.018z"/>
<polygon fill="none" points="56.973,63.902 -36.639,63.902 -33.75,0.097 59.861,0.097 "/>
<path fill="#2C60A4" d="M27.605,20.654v8.858l8.324-8.858h5.726l-8.327,8.838l9.59,13.54h-6.172L30.008,32.97l-2.402,2.854v7.208
	h-4.923V20.654H27.605z"/>
</svg>
